%YAML 1.1
%TAG !u! tag:unity3d.com,2011:
--- !u!1045 &1
EditorBuildSettings:
  m_ObjectHideFlags: 0
  serializedVersion: 2
  m_Scenes:
  - enabled: 1
    path: Assets/Scenes/MainMenu.unity
    guid: 6e725387a00dc492cb3fe2e7531a5d39
  - enabled: 1
    path: Assets/Scenes/Level 1.unity
    guid: a8917c85f197e4bd99ab23c8eefbc4ac
  - enabled: 1
    path: Assets/Scenes/Level 2.unity
    guid: 29f6b43de14c593419aac1643decc7a1
  - enabled: 1
    path: Assets/Scenes/Level 3.unity
    guid: a85886d5691bcd24faad19bfdd76b1e5
  - enabled: 1
    path: Assets/Scenes/Level 4.unity
    guid: ea98832d35a33354191d0ba6daca5406
  - enabled: 1
    path: Assets/Scenes/Level 5.unity
    guid: c5f29d22eb1a69c459b71fa2221c61ca
  - enabled: 1
    path: Assets/Scenes/Fin.unity
    guid: 8390fedd150c7d2459650ff756525b64
  m_configObjects: {}
