%YAML 1.1
%TAG !u! tag:unity3d.com,2011:
--- !u!114 &11400000
MonoBehaviour:
  m_ObjectHideFlags: 0
  m_CorrespondingSourceObject: {fileID: 0}
  m_PrefabInstance: {fileID: 0}
  m_PrefabAsset: {fileID: 0}
  m_GameObject: {fileID: 0}
  m_Enabled: 1
  m_EditorHideFlags: 0
  m_Script: {fileID: 11500000, guid: 1770d949f2dadaa4c980be0ef3e900b9, type: 3}
  m_Name: HairColorAsset
  m_EditorClassIdentifier: 
  color:
  - {r: 0, g: 0, b: 0, a: 1}
  - {r: 0.84239733, g: 0.9339623, b: 0, a: 1}
  - {r: 0.6415094, g: 0.34732208, b: 0.16037735, a: 1}
  - {r: 0.24528301, g: 0.15156639, b: 0.15156639, a: 1}
  - {r: 0.4811321, g: 0.31209105, b: 0.15659487, a: 1}
