%YAML 1.1
%TAG !u! tag:unity3d.com,2011:
--- !u!114 &11400000
MonoBehaviour:
  m_ObjectHideFlags: 0
  m_CorrespondingSourceObject: {fileID: 0}
  m_PrefabInstance: {fileID: 0}
  m_PrefabAsset: {fileID: 0}
  m_GameObject: {fileID: 0}
  m_Enabled: 1
  m_EditorHideFlags: 0
  m_Script: {fileID: 11500000, guid: 39f16b2410e04ad4daedcf2bb7d0a8f4, type: 3}
  m_Name: ShoeColorAsset
  m_EditorClassIdentifier: 
  color:
  - {r: 0, g: 0, b: 0, a: 1}
  - {r: 0.22258809, g: 0.4322578, b: 0.7735849, a: 1}
  - {r: 0.49056602, g: 0.05604816, b: 0, a: 1}
  - {r: 0.9811321, g: 0.93948025, b: 0.93948025, a: 1}
  - {r: 0.9433962, g: 0.87287664, b: 0.16464934, a: 1}
